\relax 
\ifx\hyper@anchor\@undefined
\global \let \oldcontentsline\contentsline
\gdef \contentsline#1#2#3#4{\oldcontentsline{#1}{#2}{#3}}
\global \let \oldnewlabel\newlabel
\gdef \newlabel#1#2{\newlabelxx{#1}#2}
\gdef \newlabelxx#1#2#3#4#5#6{\oldnewlabel{#1}{{#2}{#3}}}
\AtEndDocument{\let \contentsline\oldcontentsline
\let \newlabel\oldnewlabel}
\else
\global \let \hyper@last\relax 
\fi

\@writefile{toc}{\contentsline {chapter}{\numberline {1}\discretionary {-}{}{}Class \discretionary {-}{}{}Index}{1}{chapter.1}}
\@writefile{lof}{\addvspace {10\p@ }}
\@writefile{lot}{\addvspace {10\p@ }}
\@writefile{toc}{\contentsline {section}{\numberline {1.1}\discretionary {-}{}{}Class \discretionary {-}{}{}List}{1}{section.1.1}}
\@writefile{toc}{\contentsline {chapter}{\numberline {2}\discretionary {-}{}{}File \discretionary {-}{}{}Index}{3}{chapter.2}}
\@writefile{lof}{\addvspace {10\p@ }}
\@writefile{lot}{\addvspace {10\p@ }}
\@writefile{toc}{\contentsline {section}{\numberline {2.1}\discretionary {-}{}{}File \discretionary {-}{}{}List}{3}{section.2.1}}
\@writefile{toc}{\contentsline {chapter}{\numberline {3}\discretionary {-}{}{}Class \discretionary {-}{}{}Documentation}{5}{chapter.3}}
\@writefile{lof}{\addvspace {10\p@ }}
\@writefile{lot}{\addvspace {10\p@ }}
\@writefile{toc}{\contentsline {section}{\numberline {3.1}course \discretionary {-}{}{}Struct \discretionary {-}{}{}Reference}{5}{section.3.1}}
\newlabel{structcourse}{{3.1}{5}{course \-Struct \-Reference\relax }{section.3.1}{}}
\newlabel{structcourse_ab01f7f6499f3f2e4a02b706b0e7f526e}{{3.1}{5}{\-Public \-Attributes\relax }{section*.2}{}}
\newlabel{structcourse_aa35ce48b1f0419757e95309d05e0aa10}{{3.1}{5}{\-Public \-Attributes\relax }{section*.2}{}}
\newlabel{structcourse_abbabaab6d3f4a487d72b9cd580ad501e}{{3.1}{5}{\-Public \-Attributes\relax }{section*.2}{}}
\newlabel{structcourse_a7c307523e0ea5c5809c0af25122c2b5b}{{3.1}{5}{\-Public \-Attributes\relax }{section*.2}{}}
\newlabel{structcourse_a974f52505ef4c00676274514f6d4ae85}{{3.1}{5}{\-Public \-Attributes\relax }{section*.2}{}}
\newlabel{structcourse_a5b0ca7fd0d10cbd87349591ff83f6977}{{3.1}{5}{\-Public \-Attributes\relax }{section*.2}{}}
\newlabel{structcourse_a30337e65613c16052106ce6524923781}{{3.1}{5}{\-Public \-Attributes\relax }{section*.2}{}}
\newlabel{structcourse_ae09e438ef12c174cab76b4234eedabb2}{{3.1}{5}{\-Public \-Attributes\relax }{section*.2}{}}
\newlabel{structcourse_a9b4f4560059e103dba24ef2e79f21d6e}{{3.1}{5}{\-Public \-Attributes\relax }{section*.2}{}}
\@writefile{toc}{\contentsline {section}{\numberline {3.2}dept \discretionary {-}{}{}Struct \discretionary {-}{}{}Reference}{5}{section.3.2}}
\newlabel{structdept}{{3.2}{5}{dept \-Struct \-Reference\relax }{section.3.2}{}}
\newlabel{structdept_a01bf5ea110a81ac60f3cf46f0ef45d74}{{3.2}{5}{\-Public \-Attributes\relax }{section*.3}{}}
\newlabel{structdept_aa02d5cf75a5dad61cd243d873ba472ea}{{3.2}{5}{\-Public \-Attributes\relax }{section*.3}{}}
\newlabel{structdept_a27cc8ba8fd22c255215ca27e09c818e4}{{3.2}{5}{\-Public \-Attributes\relax }{section*.3}{}}
\newlabel{structdept_a03a4ba260fd314156b15384b89184f63}{{3.2}{5}{\-Public \-Attributes\relax }{section*.3}{}}
\newlabel{structdept_af56d6e7ea9c8f796f7e27812e1c9c8fe}{{3.2}{5}{\-Public \-Attributes\relax }{section*.3}{}}
\newlabel{structdept_a9b5e133e183a8f209d285618ac1acb52}{{3.2}{5}{\-Public \-Attributes\relax }{section*.3}{}}
\newlabel{structdept_adc8c02e50e5238af4f1794fdc45735d3}{{3.2}{5}{\-Public \-Attributes\relax }{section*.3}{}}
\newlabel{structdept_af5b698d8962e10e926634ac9b717cb89}{{3.2}{6}{\-Public \-Attributes\relax }{section*.3}{}}
\newlabel{structdept_a65e756bf8e0cc16a3e51e5ab01d2e16f}{{3.2}{6}{\-Public \-Attributes\relax }{section*.3}{}}
\newlabel{structdept_aac4e05f471dea00699d853e3fb838131}{{3.2}{6}{\-Public \-Attributes\relax }{section*.3}{}}
\@writefile{toc}{\contentsline {section}{\numberline {3.3}facnode \discretionary {-}{}{}Struct \discretionary {-}{}{}Reference}{6}{section.3.3}}
\newlabel{structfacnode}{{3.3}{6}{facnode \-Struct \-Reference\relax }{section.3.3}{}}
\newlabel{structfacnode_acc43c5ea7a8743abaae478003e19dcc3}{{3.3}{6}{\-Public \-Attributes\relax }{section*.4}{}}
\@writefile{toc}{\contentsline {subsection}{\numberline {3.3.1}\discretionary {-}{}{}Detailed \discretionary {-}{}{}Description}{6}{subsection.3.3.1}}
\@writefile{toc}{\contentsline {subsection}{\numberline {3.3.2}\discretionary {-}{}{}Member \discretionary {-}{}{}Data \discretionary {-}{}{}Documentation}{6}{subsection.3.3.2}}
\@writefile{toc}{\contentsline {subsubsection}{\numberline {3.3.2.1}courses}{6}{subsubsection.3.3.2.1}}
\newlabel{structfacnode_a5ad910e1cd28ad9f59a3f008f21ec895}{{3.3.2.1}{6}{courses\relax }{subsubsection.3.3.2.1}{}}
\@writefile{toc}{\contentsline {subsubsection}{\numberline {3.3.2.2}dept}{6}{subsubsection.3.3.2.2}}
\newlabel{structfacnode_a8a6f97f6d69f8739d2ee700da6078619}{{3.3.2.2}{6}{dept\relax }{subsubsection.3.3.2.2}{}}
\@writefile{toc}{\contentsline {subsubsection}{\numberline {3.3.2.3}entryno}{6}{subsubsection.3.3.2.3}}
\newlabel{structfacnode_ade462e4bfb53be272fe12d77f0b4625e}{{3.3.2.3}{6}{entryno\relax }{subsubsection.3.3.2.3}{}}
\@writefile{toc}{\contentsline {subsubsection}{\numberline {3.3.2.4}hostel}{7}{subsubsection.3.3.2.4}}
\newlabel{structfacnode_ac4a53aa78134daa1c79b08a6ce49e4eb}{{3.3.2.4}{7}{hostel\relax }{subsubsection.3.3.2.4}{}}
\@writefile{toc}{\contentsline {subsubsection}{\numberline {3.3.2.5}interests}{7}{subsubsection.3.3.2.5}}
\newlabel{structfacnode_ae985d5ca7175fb8b00cbb791735727a2}{{3.3.2.5}{7}{interests\relax }{subsubsection.3.3.2.5}{}}
\@writefile{toc}{\contentsline {subsubsection}{\numberline {3.3.2.6}name}{7}{subsubsection.3.3.2.6}}
\newlabel{structfacnode_af1643777961d3cb40fefd25ed89ecf36}{{3.3.2.6}{7}{name\relax }{subsubsection.3.3.2.6}{}}
\@writefile{toc}{\contentsline {subsubsection}{\numberline {3.3.2.7}surname}{7}{subsubsection.3.3.2.7}}
\newlabel{structfacnode_ae673ce8a168b833a96e2fe1655d46b36}{{3.3.2.7}{7}{surname\relax }{subsubsection.3.3.2.7}{}}
\@writefile{toc}{\contentsline {subsubsection}{\numberline {3.3.2.8}univ}{7}{subsubsection.3.3.2.8}}
\newlabel{structfacnode_af16004344d03bb395ad76cb7f7260f28}{{3.3.2.8}{7}{univ\relax }{subsubsection.3.3.2.8}{}}
\@writefile{toc}{\contentsline {section}{\numberline {3.4}faculty \discretionary {-}{}{}Struct \discretionary {-}{}{}Reference}{7}{section.3.4}}
\newlabel{structfaculty}{{3.4}{7}{faculty \-Struct \-Reference\relax }{section.3.4}{}}
\newlabel{structfaculty_a809dbcce4fc36b4d5d8aa3d3ee6388d1}{{3.4}{7}{\-Public \-Attributes\relax }{section*.5}{}}
\newlabel{structfaculty_a504bf5080ad44fe3532578a854c7e226}{{3.4}{7}{\-Public \-Attributes\relax }{section*.5}{}}
\newlabel{structfaculty_a87064f8521abc6b22170feb99faad82f}{{3.4}{7}{\-Public \-Attributes\relax }{section*.5}{}}
\newlabel{structfaculty_a5ec4e88edbabd110e3eef568708440b2}{{3.4}{7}{\-Public \-Attributes\relax }{section*.5}{}}
\newlabel{structfaculty_aadb0d2565123c1e880e5ff7d163db8a3}{{3.4}{7}{\-Public \-Attributes\relax }{section*.5}{}}
\newlabel{structfaculty_ab73ac6a98c8ff4a8f76a4b288e8b5ae4}{{3.4}{7}{\-Public \-Attributes\relax }{section*.5}{}}
\newlabel{structfaculty_ad94677fd25ac94621d0c824f637743dd}{{3.4}{7}{\-Public \-Attributes\relax }{section*.5}{}}
\newlabel{structfaculty_a1df525d6c3078baad342a729ba2dc832}{{3.4}{7}{\-Public \-Attributes\relax }{section*.5}{}}
\newlabel{structfaculty_a62053577d347092988d352e14e1c47ff}{{3.4}{7}{\-Public \-Attributes\relax }{section*.5}{}}
\newlabel{structfaculty_aedf3f997cde5aaff02ff8e2e7a907320}{{3.4}{7}{\-Public \-Attributes\relax }{section*.5}{}}
\@writefile{toc}{\contentsline {section}{\numberline {3.5}graph \discretionary {-}{}{}Class \discretionary {-}{}{}Reference}{8}{section.3.5}}
\newlabel{classgraph}{{3.5}{8}{graph \-Class \-Reference\relax }{section.3.5}{}}
\newlabel{classgraph_abde5b9460faac0cc42ce09b983d54f39}{{3.5}{8}{\-Public \-Member \-Functions\relax }{section*.6}{}}
\newlabel{classgraph_aeb62eaf197cdcb4800fa016eebc3d55a}{{3.5}{8}{\-Public \-Member \-Functions\relax }{section*.6}{}}
\newlabel{classgraph_a8f1ae2d19ae0295765673a00edf365e0}{{3.5}{8}{\-Public \-Attributes\relax }{section*.7}{}}
\@writefile{toc}{\contentsline {subsection}{\numberline {3.5.1}\discretionary {-}{}{}Detailed \discretionary {-}{}{}Description}{8}{subsection.3.5.1}}
\@writefile{toc}{\contentsline {subsection}{\numberline {3.5.2}\discretionary {-}{}{}Member \discretionary {-}{}{}Function \discretionary {-}{}{}Documentation}{8}{subsection.3.5.2}}
\@writefile{toc}{\contentsline {subsubsection}{\numberline {3.5.2.1}already\discretionary {-}{}{}\_\discretionary {-}{}{}friends}{8}{subsubsection.3.5.2.1}}
\newlabel{classgraph_a41530d74d2caa64867053b7e1e92351a}{{3.5.2.1}{8}{already\-\_\-friends\relax }{subsubsection.3.5.2.1}{}}
\gdef \LT@i {\LT@entry 
    {1}{59.44409pt}\LT@entry 
    {1}{288.47205pt}}
\gdef \LT@ii {\LT@entry 
    {1}{59.44409pt}\LT@entry 
    {1}{288.47205pt}}
\gdef \LT@iii {\LT@entry 
    {1}{59.44409pt}\LT@entry 
    {1}{288.47205pt}}
\gdef \LT@iv {\LT@entry 
    {1}{59.44409pt}\LT@entry 
    {1}{288.47205pt}}
\@writefile{toc}{\contentsline {subsubsection}{\numberline {3.5.2.2}create\discretionary {-}{}{}\_\discretionary {-}{}{}edge}{9}{subsubsection.3.5.2.2}}
\newlabel{classgraph_a53788c23ffdf63fc0c331dda8713e0dc}{{3.5.2.2}{9}{create\-\_\-edge\relax }{subsubsection.3.5.2.2}{}}
\@writefile{toc}{\contentsline {subsubsection}{\numberline {3.5.2.3}del\discretionary {-}{}{}\_\discretionary {-}{}{}edge}{9}{subsubsection.3.5.2.3}}
\newlabel{classgraph_aab24ab523d3de5b634e528c3db3fcb36}{{3.5.2.3}{9}{del\-\_\-edge\relax }{subsubsection.3.5.2.3}{}}
\@writefile{toc}{\contentsline {subsubsection}{\numberline {3.5.2.4}list\discretionary {-}{}{}\_\discretionary {-}{}{}of\discretionary {-}{}{}\_\discretionary {-}{}{}friends}{9}{subsubsection.3.5.2.4}}
\newlabel{classgraph_a19ae71afcb4e747414c911e79feb0003}{{3.5.2.4}{9}{list\-\_\-of\-\_\-friends\relax }{subsubsection.3.5.2.4}{}}
\gdef \LT@v {\LT@entry 
    {1}{59.44409pt}\LT@entry 
    {1}{288.47205pt}}
\@writefile{toc}{\contentsline {subsubsection}{\numberline {3.5.2.5}no\discretionary {-}{}{}\_\discretionary {-}{}{}of\discretionary {-}{}{}\_\discretionary {-}{}{}friends}{10}{subsubsection.3.5.2.5}}
\newlabel{classgraph_adf8db03ee515b2f600f77173652b6498}{{3.5.2.5}{10}{no\-\_\-of\-\_\-friends\relax }{subsubsection.3.5.2.5}{}}
\@writefile{toc}{\contentsline {subsection}{\numberline {3.5.3}\discretionary {-}{}{}Member \discretionary {-}{}{}Data \discretionary {-}{}{}Documentation}{10}{subsection.3.5.3}}
\@writefile{toc}{\contentsline {subsubsection}{\numberline {3.5.3.1}numedges}{10}{subsubsection.3.5.3.1}}
\newlabel{classgraph_a47faa0ae19e64f880826b450ff7e189e}{{3.5.3.1}{10}{numedges\relax }{subsubsection.3.5.3.1}{}}
\@writefile{toc}{\contentsline {subsubsection}{\numberline {3.5.3.2}numvertices}{10}{subsubsection.3.5.3.2}}
\newlabel{classgraph_ac39e3b2f525262b0848aeea8b9aad99e}{{3.5.3.2}{10}{numvertices\relax }{subsubsection.3.5.3.2}{}}
\@writefile{toc}{\contentsline {section}{\numberline {3.6}hostels \discretionary {-}{}{}Struct \discretionary {-}{}{}Reference}{10}{section.3.6}}
\newlabel{structhostels}{{3.6}{10}{hostels \-Struct \-Reference\relax }{section.3.6}{}}
\@writefile{toc}{\contentsline {subsection}{\numberline {3.6.1}\discretionary {-}{}{}Detailed \discretionary {-}{}{}Description}{11}{subsection.3.6.1}}
\@writefile{toc}{\contentsline {subsection}{\numberline {3.6.2}\discretionary {-}{}{}Member \discretionary {-}{}{}Data \discretionary {-}{}{}Documentation}{11}{subsection.3.6.2}}
\@writefile{toc}{\contentsline {subsubsection}{\numberline {3.6.2.1}hostel\discretionary {-}{}{}\_\discretionary {-}{}{}stud}{11}{subsubsection.3.6.2.1}}
\newlabel{structhostels_ab9adb823cfa6fe9f7696e375a753756e}{{3.6.2.1}{11}{hostel\-\_\-stud\relax }{subsubsection.3.6.2.1}{}}
\@writefile{toc}{\contentsline {subsubsection}{\numberline {3.6.2.2}name}{11}{subsubsection.3.6.2.2}}
\newlabel{structhostels_a622bd4aee612f3e7c5fe8f063138110a}{{3.6.2.2}{11}{name\relax }{subsubsection.3.6.2.2}{}}
\@writefile{toc}{\contentsline {subsubsection}{\numberline {3.6.2.3}we}{11}{subsubsection.3.6.2.3}}
\newlabel{structhostels_ae3ed8415656851af205da5d453794b2a}{{3.6.2.3}{11}{we\relax }{subsubsection.3.6.2.3}{}}
\@writefile{toc}{\contentsline {section}{\numberline {3.7}houses \discretionary {-}{}{}Struct \discretionary {-}{}{}Reference}{11}{section.3.7}}
\newlabel{structhouses}{{3.7}{11}{houses \-Struct \-Reference\relax }{section.3.7}{}}
\@writefile{toc}{\contentsline {subsection}{\numberline {3.7.1}\discretionary {-}{}{}Detailed \discretionary {-}{}{}Description}{11}{subsection.3.7.1}}
\@writefile{toc}{\contentsline {subsection}{\numberline {3.7.2}\discretionary {-}{}{}Member \discretionary {-}{}{}Data \discretionary {-}{}{}Documentation}{11}{subsection.3.7.2}}
\@writefile{toc}{\contentsline {subsubsection}{\numberline {3.7.2.1}fill}{11}{subsubsection.3.7.2.1}}
\newlabel{structhouses_a1f9e437790da8853020ba514ca238547}{{3.7.2.1}{11}{fill\relax }{subsubsection.3.7.2.1}{}}
\@writefile{toc}{\contentsline {subsubsection}{\numberline {3.7.2.2}house\discretionary {-}{}{}\_\discretionary {-}{}{}fac}{12}{subsubsection.3.7.2.2}}
\newlabel{structhouses_a336801077e911752f724095f7221350d}{{3.7.2.2}{12}{house\-\_\-fac\relax }{subsubsection.3.7.2.2}{}}
\@writefile{toc}{\contentsline {subsubsection}{\numberline {3.7.2.3}name}{12}{subsubsection.3.7.2.3}}
\newlabel{structhouses_ad348ad7c4afa2f9f977df3a3eb657c47}{{3.7.2.3}{12}{name\relax }{subsubsection.3.7.2.3}{}}
\@writefile{toc}{\contentsline {section}{\numberline {3.8}interest \discretionary {-}{}{}Struct \discretionary {-}{}{}Reference}{12}{section.3.8}}
\newlabel{structinterest}{{3.8}{12}{interest \-Struct \-Reference\relax }{section.3.8}{}}
\@writefile{toc}{\contentsline {subsection}{\numberline {3.8.1}\discretionary {-}{}{}Detailed \discretionary {-}{}{}Description}{12}{subsection.3.8.1}}
\@writefile{toc}{\contentsline {subsection}{\numberline {3.8.2}\discretionary {-}{}{}Member \discretionary {-}{}{}Data \discretionary {-}{}{}Documentation}{12}{subsection.3.8.2}}
\@writefile{toc}{\contentsline {subsubsection}{\numberline {3.8.2.1}interest\discretionary {-}{}{}\_\discretionary {-}{}{}fac}{12}{subsubsection.3.8.2.1}}
\newlabel{structinterest_a19e8aa2cc4abff18e329f6a2fbcaa07c}{{3.8.2.1}{12}{interest\-\_\-fac\relax }{subsubsection.3.8.2.1}{}}
\@writefile{toc}{\contentsline {subsubsection}{\numberline {3.8.2.2}interest\discretionary {-}{}{}\_\discretionary {-}{}{}stud}{12}{subsubsection.3.8.2.2}}
\newlabel{structinterest_a8e0fd6edf9d01b082b324c51e6856b79}{{3.8.2.2}{12}{interest\-\_\-stud\relax }{subsubsection.3.8.2.2}{}}
\@writefile{toc}{\contentsline {subsubsection}{\numberline {3.8.2.3}name}{12}{subsubsection.3.8.2.3}}
\newlabel{structinterest_a92ad14a1e0add2231b55593c5939383f}{{3.8.2.3}{12}{name\relax }{subsubsection.3.8.2.3}{}}
\gdef \LT@vi {\LT@entry 
    {1}{59.44409pt}\LT@entry 
    {1}{288.47205pt}}
\@writefile{toc}{\contentsline {section}{\numberline {3.9}mymsgbuf \discretionary {-}{}{}Struct \discretionary {-}{}{}Reference}{13}{section.3.9}}
\newlabel{structmymsgbuf}{{3.9}{13}{mymsgbuf \-Struct \-Reference\relax }{section.3.9}{}}
\newlabel{structmymsgbuf_a21ef64f89f1608c1f00ba90aaa2f05a9}{{3.9}{13}{\-Public \-Attributes\relax }{section*.11}{}}
\newlabel{structmymsgbuf_a7df0ef235f6968e408aafe66b544a723}{{3.9}{13}{\-Public \-Attributes\relax }{section*.11}{}}
\newlabel{structmymsgbuf_aa85fd5c53a5192407d6f54e70065ea10}{{3.9}{13}{\-Public \-Attributes\relax }{section*.11}{}}
\@writefile{toc}{\contentsline {subsection}{\numberline {3.9.1}\discretionary {-}{}{}Detailed \discretionary {-}{}{}Description}{13}{subsection.3.9.1}}
\@writefile{toc}{\contentsline {section}{\numberline {3.10}pq\discretionary {-}{}{}\_\discretionary {-}{}{}operand \discretionary {-}{}{}Class \discretionary {-}{}{}Reference}{13}{section.3.10}}
\newlabel{classpq__operand}{{3.10}{13}{pq\-\_\-operand \-Class \-Reference\relax }{section.3.10}{}}
\@writefile{toc}{\contentsline {subsection}{\numberline {3.10.1}\discretionary {-}{}{}Detailed \discretionary {-}{}{}Description}{13}{subsection.3.10.1}}
\@writefile{toc}{\contentsline {subsection}{\numberline {3.10.2}\discretionary {-}{}{}Member \discretionary {-}{}{}Function \discretionary {-}{}{}Documentation}{13}{subsection.3.10.2}}
\@writefile{toc}{\contentsline {subsubsection}{\numberline {3.10.2.1}operator()}{13}{subsubsection.3.10.2.1}}
\newlabel{classpq__operand_a86e63c325f49ac5b12d62a7610b95b3c}{{3.10.2.1}{13}{operator()\relax }{subsubsection.3.10.2.1}{}}
\@writefile{toc}{\contentsline {section}{\numberline {3.11}student \discretionary {-}{}{}Struct \discretionary {-}{}{}Reference}{14}{section.3.11}}
\newlabel{structstudent}{{3.11}{14}{student \-Struct \-Reference\relax }{section.3.11}{}}
\newlabel{structstudent_aa7c812ed4b83c4e128dbe53afbadcef8}{{3.11}{14}{\-Public \-Attributes\relax }{section*.13}{}}
\newlabel{structstudent_a342b6947ab8d9252427c723323417f6a}{{3.11}{14}{\-Public \-Attributes\relax }{section*.13}{}}
\newlabel{structstudent_ae6f48208eb22ab99175a88aa052a81a5}{{3.11}{14}{\-Public \-Attributes\relax }{section*.13}{}}
\newlabel{structstudent_a473ea91ecf604c0a5125eaad19307a39}{{3.11}{14}{\-Public \-Attributes\relax }{section*.13}{}}
\newlabel{structstudent_ab20dcce0bdaf90e4a76f524271ac6e1d}{{3.11}{14}{\-Public \-Attributes\relax }{section*.13}{}}
\newlabel{structstudent_a7446b103a3a493593520b10614f0f763}{{3.11}{14}{\-Public \-Attributes\relax }{section*.13}{}}
\newlabel{structstudent_ac34936881873c525c9c7714f3d5b8ffb}{{3.11}{14}{\-Public \-Attributes\relax }{section*.13}{}}
\newlabel{structstudent_aff01da6822cee0fe566b4f737eaf144d}{{3.11}{14}{\-Public \-Attributes\relax }{section*.13}{}}
\newlabel{structstudent_aab75abb4c4efa7e1539995b649adaa56}{{3.11}{14}{\-Public \-Attributes\relax }{section*.13}{}}
\newlabel{structstudent_aa7a4ce088b1e52df0a8d7cdf3296c146}{{3.11}{14}{\-Public \-Attributes\relax }{section*.13}{}}
\newlabel{structstudent_a9685664d51ee6f0cd5ff9041aa779710}{{3.11}{14}{\-Public \-Attributes\relax }{section*.13}{}}
\newlabel{structstudent_a3e663b1978675c3d11bb30c92a6215c5}{{3.11}{14}{\-Public \-Attributes\relax }{section*.13}{}}
\newlabel{structstudent_a9929ea200084c568045331ec6420ca2c}{{3.11}{14}{\-Public \-Attributes\relax }{section*.13}{}}
\newlabel{structstudent_afac7727e844ba1247fbecad1036c77b6}{{3.11}{14}{\-Public \-Attributes\relax }{section*.13}{}}
\newlabel{structstudent_a079b7684eece0f668823b5a0eb62d902}{{3.11}{14}{\-Public \-Attributes\relax }{section*.13}{}}
\@writefile{toc}{\contentsline {section}{\numberline {3.12}studnode \discretionary {-}{}{}Struct \discretionary {-}{}{}Reference}{14}{section.3.12}}
\newlabel{structstudnode}{{3.12}{14}{studnode \-Struct \-Reference\relax }{section.3.12}{}}
\newlabel{structstudnode_a838d738f2d7483016a398edaf7e5d7a2}{{3.12}{15}{\-Public \-Attributes\relax }{section*.14}{}}
\@writefile{toc}{\contentsline {subsection}{\numberline {3.12.1}\discretionary {-}{}{}Detailed \discretionary {-}{}{}Description}{15}{subsection.3.12.1}}
\@writefile{toc}{\contentsline {subsection}{\numberline {3.12.2}\discretionary {-}{}{}Member \discretionary {-}{}{}Data \discretionary {-}{}{}Documentation}{15}{subsection.3.12.2}}
\@writefile{toc}{\contentsline {subsubsection}{\numberline {3.12.2.1}batch}{15}{subsubsection.3.12.2.1}}
\newlabel{structstudnode_a8354fea88f4c23a40c5590e39128314c}{{3.12.2.1}{15}{batch\relax }{subsubsection.3.12.2.1}{}}
\@writefile{toc}{\contentsline {subsubsection}{\numberline {3.12.2.2}courses}{15}{subsubsection.3.12.2.2}}
\newlabel{structstudnode_afb2fd69feeebcfe7e5808fe9c88c8f54}{{3.12.2.2}{15}{courses\relax }{subsubsection.3.12.2.2}{}}
\@writefile{toc}{\contentsline {subsubsection}{\numberline {3.12.2.3}dept}{15}{subsubsection.3.12.2.3}}
\newlabel{structstudnode_a2a9d9cc2bbf0b51eb855f0f3d15a0b2e}{{3.12.2.3}{15}{dept\relax }{subsubsection.3.12.2.3}{}}
\@writefile{toc}{\contentsline {subsubsection}{\numberline {3.12.2.4}entryno}{15}{subsubsection.3.12.2.4}}
\newlabel{structstudnode_aee7f0bb0c9449865325d74aba81ffc2f}{{3.12.2.4}{15}{entryno\relax }{subsubsection.3.12.2.4}{}}
\@writefile{toc}{\contentsline {subsubsection}{\numberline {3.12.2.5}floor}{15}{subsubsection.3.12.2.5}}
\newlabel{structstudnode_a7cac821e7b06b83a0b0bb90dc3bd50d6}{{3.12.2.5}{15}{floor\relax }{subsubsection.3.12.2.5}{}}
\@writefile{toc}{\contentsline {subsubsection}{\numberline {3.12.2.6}friends}{15}{subsubsection.3.12.2.6}}
\newlabel{structstudnode_a939146f3d86c4cf28aa1aa2c52996396}{{3.12.2.6}{15}{friends\relax }{subsubsection.3.12.2.6}{}}
\@writefile{toc}{\contentsline {subsubsection}{\numberline {3.12.2.7}hostel}{15}{subsubsection.3.12.2.7}}
\newlabel{structstudnode_aaa56dae65b3c550e367775cbe6caafa2}{{3.12.2.7}{15}{hostel\relax }{subsubsection.3.12.2.7}{}}
\@writefile{toc}{\contentsline {subsubsection}{\numberline {3.12.2.8}name}{16}{subsubsection.3.12.2.8}}
\newlabel{structstudnode_a47a0e9cc231c18330ac0d6613f2f8f8a}{{3.12.2.8}{16}{name\relax }{subsubsection.3.12.2.8}{}}
\@writefile{toc}{\contentsline {subsubsection}{\numberline {3.12.2.9}room\discretionary {-}{}{}No}{16}{subsubsection.3.12.2.9}}
\newlabel{structstudnode_aa2398aa0ea818023150ab650a5243c55}{{3.12.2.9}{16}{room\-No\relax }{subsubsection.3.12.2.9}{}}
\@writefile{toc}{\contentsline {subsubsection}{\numberline {3.12.2.10}surname}{16}{subsubsection.3.12.2.10}}
\newlabel{structstudnode_aad05017a47a5f1801017257761d8a7ab}{{3.12.2.10}{16}{surname\relax }{subsubsection.3.12.2.10}{}}
\@writefile{toc}{\contentsline {subsubsection}{\numberline {3.12.2.11}univ}{16}{subsubsection.3.12.2.11}}
\newlabel{structstudnode_a5c692d229f1f8eb0d87870fa2ea9b424}{{3.12.2.11}{16}{univ\relax }{subsubsection.3.12.2.11}{}}
\@writefile{toc}{\contentsline {subsubsection}{\numberline {3.12.2.12}year}{16}{subsubsection.3.12.2.12}}
\newlabel{structstudnode_aa77be2d6f41f9047fd8fa1d1371836ec}{{3.12.2.12}{16}{year\relax }{subsubsection.3.12.2.12}{}}
\@writefile{toc}{\contentsline {section}{\numberline {3.13}\discretionary {-}{}{}U\discretionary {-}{}{}N\discretionary {-}{}{}I\discretionary {-}{}{}V \discretionary {-}{}{}Struct \discretionary {-}{}{}Reference}{16}{section.3.13}}
\newlabel{structUNIV}{{3.13}{16}{\-U\-N\-I\-V \-Struct \-Reference\relax }{section.3.13}{}}
\newlabel{structUNIV_a6715ccb99faf158f1d66d96305c8a8cc}{{3.13}{16}{\-Public \-Attributes\relax }{section*.15}{}}
\newlabel{structUNIV_afd3b34911cd0e19316b21ce16497b20c}{{3.13}{16}{\-Public \-Attributes\relax }{section*.15}{}}
\newlabel{structUNIV_a899ba520b4f89ab205a7ca109e530c89}{{3.13}{16}{\-Public \-Attributes\relax }{section*.15}{}}
\newlabel{structUNIV_afd1238ab003c282a83f4f50bc06278c6}{{3.13}{16}{\-Public \-Attributes\relax }{section*.15}{}}
\newlabel{structUNIV_a992fd99c53f7f27c5f59bc1996fd57ea}{{3.13}{16}{\-Public \-Attributes\relax }{section*.15}{}}
\newlabel{structUNIV_a2520a5e9883e33f910f911527ce63f3e}{{3.13}{16}{\-Public \-Attributes\relax }{section*.15}{}}
\newlabel{structUNIV_aeec5dd4987d6efb9a3007f9cc507ccd6}{{3.13}{16}{\-Public \-Attributes\relax }{section*.15}{}}
\newlabel{structUNIV_ab4088856bba5057db662722b8f619a12}{{3.13}{16}{\-Public \-Attributes\relax }{section*.15}{}}
\newlabel{structUNIV_a8f343d7d6df965a1fe89e61433467671}{{3.13}{16}{\-Public \-Attributes\relax }{section*.15}{}}
\newlabel{structUNIV_a3e60f109b557a375747bd424109431b6}{{3.13}{16}{\-Public \-Attributes\relax }{section*.15}{}}
\newlabel{structUNIV_a2066fe5f282408a1208fff6fc7512483}{{3.13}{16}{\-Public \-Attributes\relax }{section*.15}{}}
\@writefile{toc}{\contentsline {chapter}{\numberline {4}\discretionary {-}{}{}File \discretionary {-}{}{}Documentation}{17}{chapter.4}}
\@writefile{lof}{\addvspace {10\p@ }}
\@writefile{lot}{\addvspace {10\p@ }}
\@writefile{toc}{\contentsline {section}{\numberline {4.1}analyser.\discretionary {-}{}{}h \discretionary {-}{}{}File \discretionary {-}{}{}Reference}{17}{section.4.1}}
\newlabel{analyser_8h}{{4.1}{17}{analyser.\-h \-File \-Reference\relax }{section.4.1}{}}
\newlabel{analyser_8h_a7925a52c8d88fa78773d41d49064de76}{{4.1}{17}{\-Functions\relax }{section*.17}{}}
\newlabel{analyser_8h_a4bd5e7d17f1882ef787b0765eb09854c}{{4.1}{17}{\-Functions\relax }{section*.17}{}}
\newlabel{analyser_8h_a50e672b37772343fa14a64e0d5b9273e}{{4.1}{17}{\-Functions\relax }{section*.17}{}}
\newlabel{analyser_8h_aeb2fb180b131ebe305e3dd25e42143cb}{{4.1}{17}{\-Functions\relax }{section*.17}{}}
\newlabel{analyser_8h_a0239fa19a26e015557edcd85aef9ec6c}{{4.1}{17}{\-Functions\relax }{section*.17}{}}
\newlabel{analyser_8h_ac1dcf7c4685383d74ab2e76e81463083}{{4.1}{17}{\-Functions\relax }{section*.17}{}}
\newlabel{analyser_8h_a6d3d23cf42b4c19072b6fa6e34912374}{{4.1}{17}{\-Functions\relax }{section*.17}{}}
\newlabel{analyser_8h_a37d0477be4330c71f97b42ce80b118eb}{{4.1}{17}{\-Functions\relax }{section*.17}{}}
\newlabel{analyser_8h_a3c852b76f970a72a0b6ad7762b824bd7}{{4.1}{17}{\-Functions\relax }{section*.17}{}}
\gdef \LT@vii {\LT@entry 
    {1}{59.44409pt}\LT@entry 
    {1}{288.47205pt}}
\@writefile{toc}{\contentsline {subsection}{\numberline {4.1.1}\discretionary {-}{}{}Detailed \discretionary {-}{}{}Description}{18}{subsection.4.1.1}}
\@writefile{toc}{\contentsline {section}{\numberline {4.2}gen\discretionary {-}{}{}Course.\discretionary {-}{}{}h \discretionary {-}{}{}File \discretionary {-}{}{}Reference}{18}{section.4.2}}
\newlabel{genCourse_8h}{{4.2}{18}{gen\-Course.\-h \-File \-Reference\relax }{section.4.2}{}}
\@writefile{toc}{\contentsline {subsection}{\numberline {4.2.1}\discretionary {-}{}{}Detailed \discretionary {-}{}{}Description}{18}{subsection.4.2.1}}
\@writefile{toc}{\contentsline {subsection}{\numberline {4.2.2}\discretionary {-}{}{}Function \discretionary {-}{}{}Documentation}{18}{subsection.4.2.2}}
\@writefile{toc}{\contentsline {subsubsection}{\numberline {4.2.2.1}allocate\discretionary {-}{}{}Courses}{18}{subsubsection.4.2.2.1}}
\newlabel{genCourse_8h_a61b7d7f1ed577b1ed09353a3dde6a420}{{4.2.2.1}{18}{allocate\-Courses\relax }{subsubsection.4.2.2.1}{}}
\@writefile{toc}{\contentsline {subsubsection}{\numberline {4.2.2.2}float\discretionary {-}{}{}Courses}{18}{subsubsection.4.2.2.2}}
\newlabel{genCourse_8h_a0f0c0a492e8b1234a7af7ab102f15336}{{4.2.2.2}{18}{float\-Courses\relax }{subsubsection.4.2.2.2}{}}
\gdef \LT@viii {\LT@entry 
    {1}{59.44409pt}\LT@entry 
    {1}{288.47205pt}}
\@writefile{toc}{\contentsline {section}{\numberline {4.3}generator.\discretionary {-}{}{}h \discretionary {-}{}{}File \discretionary {-}{}{}Reference}{19}{section.4.3}}
\newlabel{generator_8h}{{4.3}{19}{generator.\-h \-File \-Reference\relax }{section.4.3}{}}
\@writefile{toc}{\contentsline {subsection}{\numberline {4.3.1}\discretionary {-}{}{}Detailed \discretionary {-}{}{}Description}{19}{subsection.4.3.1}}
\@writefile{toc}{\contentsline {subsection}{\numberline {4.3.2}\discretionary {-}{}{}Function \discretionary {-}{}{}Documentation}{19}{subsection.4.3.2}}
\@writefile{toc}{\contentsline {subsubsection}{\numberline {4.3.2.1}generate\discretionary {-}{}{}Courses}{19}{subsubsection.4.3.2.1}}
\newlabel{generator_8h_a6f0d8f4fe22f11afee6e507016226ad7}{{4.3.2.1}{19}{generate\-Courses\relax }{subsubsection.4.3.2.1}{}}
\gdef \LT@ix {\LT@entry 
    {1}{59.44409pt}\LT@entry 
    {1}{288.47205pt}}
\gdef \LT@x {\LT@entry 
    {1}{59.44409pt}\LT@entry 
    {1}{288.47205pt}}
\gdef \LT@xi {\LT@entry 
    {1}{59.44409pt}\LT@entry 
    {1}{288.47205pt}}
\gdef \LT@xii {\LT@entry 
    {1}{59.44409pt}\LT@entry 
    {1}{288.47205pt}}
\@writefile{toc}{\contentsline {subsubsection}{\numberline {4.3.2.2}generate\discretionary {-}{}{}Faculty}{20}{subsubsection.4.3.2.2}}
\newlabel{generator_8h_a1f08b25c1a44025b28c6a2b2d15400a2}{{4.3.2.2}{20}{generate\-Faculty\relax }{subsubsection.4.3.2.2}{}}
\@writefile{toc}{\contentsline {subsubsection}{\numberline {4.3.2.3}generate\discretionary {-}{}{}Students}{20}{subsubsection.4.3.2.3}}
\newlabel{generator_8h_a2ffe365f393e1258badb16ad8a462a1f}{{4.3.2.3}{20}{generate\-Students\relax }{subsubsection.4.3.2.3}{}}
\@writefile{toc}{\contentsline {subsubsection}{\numberline {4.3.2.4}gen\discretionary {-}{}{}Fen}{20}{subsubsection.4.3.2.4}}
\newlabel{generator_8h_ad257d850956b4f1df152c3e88bda44c3}{{4.3.2.4}{20}{gen\-Fen\relax }{subsubsection.4.3.2.4}{}}
\gdef \LT@xiii {\LT@entry 
    {1}{59.44409pt}\LT@entry 
    {1}{288.47205pt}}
\gdef \LT@xiv {\LT@entry 
    {1}{59.44409pt}\LT@entry 
    {1}{288.47205pt}}
\@writefile{toc}{\contentsline {subsubsection}{\numberline {4.3.2.5}readpp}{21}{subsubsection.4.3.2.5}}
\newlabel{generator_8h_a34bcee5d75196e94afa20b5160a8abdc}{{4.3.2.5}{21}{readpp\relax }{subsubsection.4.3.2.5}{}}
\@writefile{toc}{\contentsline {section}{\numberline {4.4}genfac.\discretionary {-}{}{}h \discretionary {-}{}{}File \discretionary {-}{}{}Reference}{21}{section.4.4}}
\newlabel{genfac_8h}{{4.4}{21}{genfac.\-h \-File \-Reference\relax }{section.4.4}{}}
\@writefile{toc}{\contentsline {subsection}{\numberline {4.4.1}\discretionary {-}{}{}Detailed \discretionary {-}{}{}Description}{21}{subsection.4.4.1}}
\@writefile{toc}{\contentsline {subsection}{\numberline {4.4.2}\discretionary {-}{}{}Function \discretionary {-}{}{}Documentation}{21}{subsection.4.4.2}}
\@writefile{toc}{\contentsline {subsubsection}{\numberline {4.4.2.1}genfacof1dept}{21}{subsubsection.4.4.2.1}}
\newlabel{genfac_8h_a82fc734e9a251c71ecfd04cd6b70f0de}{{4.4.2.1}{21}{genfacof1dept\relax }{subsubsection.4.4.2.1}{}}
\gdef \LT@xv {\LT@entry 
    {1}{59.44409pt}\LT@entry 
    {1}{288.47205pt}}
\gdef \LT@xvi {\LT@entry 
    {1}{59.44409pt}\LT@entry 
    {1}{288.47205pt}}
\@writefile{toc}{\contentsline {subsubsection}{\numberline {4.4.2.2}randominterest\discretionary {-}{}{}\_\discretionary {-}{}{}fac}{22}{subsubsection.4.4.2.2}}
\newlabel{genfac_8h_a691f06c7969cd0e33f21d2cc6b2e83a4}{{4.4.2.2}{22}{randominterest\-\_\-fac\relax }{subsubsection.4.4.2.2}{}}
\@writefile{toc}{\contentsline {section}{\numberline {4.5}gen\discretionary {-}{}{}Friend.\discretionary {-}{}{}h \discretionary {-}{}{}File \discretionary {-}{}{}Reference}{22}{section.4.5}}
\newlabel{genFriend_8h}{{4.5}{22}{gen\-Friend.\-h \-File \-Reference\relax }{section.4.5}{}}
\@writefile{toc}{\contentsline {subsection}{\numberline {4.5.1}\discretionary {-}{}{}Detailed \discretionary {-}{}{}Description}{22}{subsection.4.5.1}}
\@writefile{toc}{\contentsline {subsection}{\numberline {4.5.2}\discretionary {-}{}{}Function \discretionary {-}{}{}Documentation}{22}{subsection.4.5.2}}
\@writefile{toc}{\contentsline {subsubsection}{\numberline {4.5.2.1}gen\discretionary {-}{}{}Friends}{22}{subsubsection.4.5.2.1}}
\newlabel{genFriend_8h_a5291632f6deb8f4e14a5b768f8e398d7}{{4.5.2.1}{22}{gen\-Friends\relax }{subsubsection.4.5.2.1}{}}
\@writefile{toc}{\contentsline {section}{\numberline {4.6}genstudent.\discretionary {-}{}{}h \discretionary {-}{}{}File \discretionary {-}{}{}Reference}{23}{section.4.6}}
\newlabel{genstudent_8h}{{4.6}{23}{genstudent.\-h \-File \-Reference\relax }{section.4.6}{}}
\@writefile{toc}{\contentsline {subsection}{\numberline {4.6.1}\discretionary {-}{}{}Detailed \discretionary {-}{}{}Description}{23}{subsection.4.6.1}}
\@writefile{toc}{\contentsline {subsection}{\numberline {4.6.2}\discretionary {-}{}{}Function \discretionary {-}{}{}Documentation}{23}{subsection.4.6.2}}
\@writefile{toc}{\contentsline {subsubsection}{\numberline {4.6.2.1}genstuof1dept}{23}{subsubsection.4.6.2.1}}
\newlabel{genstudent_8h_a6ce86bdfde20e6aa23fddb145e888c3c}{{4.6.2.1}{23}{genstuof1dept\relax }{subsubsection.4.6.2.1}{}}
\gdef \LT@xvii {\LT@entry 
    {1}{59.44409pt}\LT@entry 
    {1}{288.47205pt}}
\gdef \LT@xviii {\LT@entry 
    {1}{59.44409pt}\LT@entry 
    {1}{288.47205pt}}
\@writefile{toc}{\contentsline {subsubsection}{\numberline {4.6.2.2}increase\discretionary {-}{}{}\_\discretionary {-}{}{}year}{24}{subsubsection.4.6.2.2}}
\newlabel{genstudent_8h_a69f62b87d9c8b8296cb85f8edc13daa1}{{4.6.2.2}{24}{increase\-\_\-year\relax }{subsubsection.4.6.2.2}{}}
\@writefile{toc}{\contentsline {subsubsection}{\numberline {4.6.2.3}kill}{24}{subsubsection.4.6.2.3}}
\newlabel{genstudent_8h_aae9d52caad9fb2892deeb25596cfd2ab}{{4.6.2.3}{24}{kill\relax }{subsubsection.4.6.2.3}{}}
\@writefile{toc}{\contentsline {subsubsection}{\numberline {4.6.2.4}kill\discretionary {-}{}{}\_\discretionary {-}{}{}all}{24}{subsubsection.4.6.2.4}}
\newlabel{genstudent_8h_ad1cff4a75ce3757e7bec37b6dfd5ed96}{{4.6.2.4}{24}{kill\-\_\-all\relax }{subsubsection.4.6.2.4}{}}
\@writefile{toc}{\contentsline {subsubsection}{\numberline {4.6.2.5}randominterest\discretionary {-}{}{}\_\discretionary {-}{}{}st}{24}{subsubsection.4.6.2.5}}
\newlabel{genstudent_8h_adf791cf10a08e02c8ff25374733ca48e}{{4.6.2.5}{24}{randominterest\-\_\-st\relax }{subsubsection.4.6.2.5}{}}
\@writefile{toc}{\contentsline {section}{\numberline {4.7}global1.\discretionary {-}{}{}h \discretionary {-}{}{}File \discretionary {-}{}{}Reference}{25}{section.4.7}}
\newlabel{global1_8h}{{4.7}{25}{global1.\-h \-File \-Reference\relax }{section.4.7}{}}
\newlabel{global1_8h_afd745bd1e8043284397137082b2b115d}{{4.7}{25}{\-Variables\relax }{section*.24}{}}
\newlabel{global1_8h_a5a69c472f12bd3a81471d0d7d9c84f91}{{4.7}{25}{\-Variables\relax }{section*.24}{}}
\newlabel{global1_8h_aa76c3499e301bb467005bf1963828464}{{4.7}{25}{\-Variables\relax }{section*.24}{}}
\newlabel{global1_8h_a967ae674c9351c4b88c805be21b12b49}{{4.7}{25}{\-Variables\relax }{section*.24}{}}
\newlabel{global1_8h_a1e94f93c0978ab99b352b4651ae80daf}{{4.7}{25}{\-Variables\relax }{section*.24}{}}
\newlabel{global1_8h_a4fe1590c5fd9d24860334888000ee32b}{{4.7}{25}{\-Variables\relax }{section*.24}{}}
\newlabel{global1_8h_add90b1a6e840d049c7df689937d19a2e}{{4.7}{25}{\-Variables\relax }{section*.24}{}}
\newlabel{global1_8h_a1dd0bd88d2e945086ae7ddff7ce81c52}{{4.7}{26}{\-Variables\relax }{section*.24}{}}
\newlabel{global1_8h_a16ffb2ae00ae914b98f11f68b6e253da}{{4.7}{26}{\-Variables\relax }{section*.24}{}}
\newlabel{global1_8h_ad189d2df3422e81bcc4ce27828c82386}{{4.7}{26}{\-Variables\relax }{section*.24}{}}
\newlabel{global1_8h_ab9c0da4d029f06f68f88bd589bbbf9d1}{{4.7}{26}{\-Variables\relax }{section*.24}{}}
\newlabel{global1_8h_a35ab6696f46506bd6ac6f2f39e394733}{{4.7}{26}{\-Variables\relax }{section*.24}{}}
\newlabel{global1_8h_a242669b3bfd0b8cf7fc591729a4dd514}{{4.7}{26}{\-Variables\relax }{section*.24}{}}
\newlabel{global1_8h_ac2e5354e2bb21b393ce53bc74e947466}{{4.7}{26}{\-Variables\relax }{section*.24}{}}
\newlabel{global1_8h_aaba49e8c39fc3335bad5cfd08ca97478}{{4.7}{26}{\-Variables\relax }{section*.24}{}}
\newlabel{global1_8h_a7069be5387a47d69abd6ac18c42ac63f}{{4.7}{26}{\-Variables\relax }{section*.24}{}}
\newlabel{global1_8h_a533391314665d6bf1b5575e9a9cd8552}{{4.7}{26}{\-Variables\relax }{section*.24}{}}
\newlabel{global1_8h_a983bc7a88c6a942f2623610df15f8475}{{4.7}{26}{\-Variables\relax }{section*.24}{}}
\newlabel{global1_8h_a99781e10bd378b8c10bd49f7652d2482}{{4.7}{26}{\-Variables\relax }{section*.24}{}}
\newlabel{global1_8h_a363bf9e74c4be4a166e2ae3090513262}{{4.7}{26}{\-Variables\relax }{section*.24}{}}
\newlabel{global1_8h_a28660861136e83eb406e08b7b1493f9f}{{4.7}{26}{\-Variables\relax }{section*.24}{}}
\newlabel{global1_8h_a64099c02e449e969364e6ff189e486ee}{{4.7}{26}{\-Variables\relax }{section*.24}{}}
\newlabel{global1_8h_a2da2b12bba967f11f7d687a400901e78}{{4.7}{26}{\-Variables\relax }{section*.24}{}}
\newlabel{global1_8h_ab8ac1598f2ed60c55e3a4371626ef2ae}{{4.7}{26}{\-Variables\relax }{section*.24}{}}
\newlabel{global1_8h_a0bff8c6cfa29ccfd76a638a3eaf652ee}{{4.7}{26}{\-Variables\relax }{section*.24}{}}
\newlabel{global1_8h_a37d6c1da99963f0f5aa75e5d216d87d5}{{4.7}{26}{\-Variables\relax }{section*.24}{}}
\newlabel{global1_8h_ae227466b0c8fdb23c81a4550a68e792a}{{4.7}{26}{\-Variables\relax }{section*.24}{}}
\newlabel{global1_8h_a2fe8ce726a63c465473578db87d29fa3}{{4.7}{26}{\-Variables\relax }{section*.24}{}}
\newlabel{global1_8h_af009f3dd64d81172c730f0b836b8b3f1}{{4.7}{26}{\-Variables\relax }{section*.24}{}}
\@writefile{toc}{\contentsline {subsection}{\numberline {4.7.1}\discretionary {-}{}{}Detailed \discretionary {-}{}{}Description}{26}{subsection.4.7.1}}
\@writefile{toc}{\contentsline {subsection}{\numberline {4.7.2}\discretionary {-}{}{}Variable \discretionary {-}{}{}Documentation}{27}{subsection.4.7.2}}
\@writefile{toc}{\contentsline {subsubsection}{\numberline {4.7.2.1}allinterest}{27}{subsubsection.4.7.2.1}}
\newlabel{global1_8h_a771c88f180533111c0d9cd2e9cb9828a}{{4.7.2.1}{27}{allinterest\relax }{subsubsection.4.7.2.1}{}}
\@writefile{toc}{\contentsline {subsubsection}{\numberline {4.7.2.2}allstudents}{27}{subsubsection.4.7.2.2}}
\newlabel{global1_8h_a69a374e0042bb222696b709c5d7c8d7f}{{4.7.2.2}{27}{allstudents\relax }{subsubsection.4.7.2.2}{}}
\@writefile{toc}{\contentsline {subsubsection}{\numberline {4.7.2.3}entryno}{27}{subsubsection.4.7.2.3}}
\newlabel{global1_8h_a6724499cbe57eb3d689fb5b0c46d5799}{{4.7.2.3}{27}{entryno\relax }{subsubsection.4.7.2.3}{}}
\@writefile{toc}{\contentsline {subsubsection}{\numberline {4.7.2.4}fac\discretionary {-}{}{}Cond}{27}{subsubsection.4.7.2.4}}
\newlabel{global1_8h_a5c00cbf5eaac794937ce3712ce368d9f}{{4.7.2.4}{27}{fac\-Cond\relax }{subsubsection.4.7.2.4}{}}
\@writefile{toc}{\contentsline {subsubsection}{\numberline {4.7.2.5}fac\discretionary {-}{}{}Mutex}{27}{subsubsection.4.7.2.5}}
\newlabel{global1_8h_ae5a4b0c3c52d86bec58ce26ac0c0071e}{{4.7.2.5}{27}{fac\-Mutex\relax }{subsubsection.4.7.2.5}{}}
\@writefile{toc}{\contentsline {subsubsection}{\numberline {4.7.2.6}fac\discretionary {-}{}{}R\discretionary {-}{}{}A\discretionary {-}{}{}N\discretionary {-}{}{}D\discretionary {-}{}{}O\discretionary {-}{}{}M}{27}{subsubsection.4.7.2.6}}
\newlabel{global1_8h_a95382659a3d3bd88b640734829b9dd60}{{4.7.2.6}{27}{fac\-R\-A\-N\-D\-O\-M\relax }{subsubsection.4.7.2.6}{}}
\@writefile{toc}{\contentsline {subsubsection}{\numberline {4.7.2.7}gentotime}{27}{subsubsection.4.7.2.7}}
\newlabel{global1_8h_a932f4b051c5d070560395047f7661646}{{4.7.2.7}{27}{gentotime\relax }{subsubsection.4.7.2.7}{}}
\@writefile{toc}{\contentsline {subsubsection}{\numberline {4.7.2.8}prof\discretionary {-}{}{}\_\discretionary {-}{}{}name}{27}{subsubsection.4.7.2.8}}
\newlabel{global1_8h_a7083716f58c373d80683af90e1755f63}{{4.7.2.8}{27}{prof\-\_\-name\relax }{subsubsection.4.7.2.8}{}}
\@writefile{toc}{\contentsline {subsubsection}{\numberline {4.7.2.9}run\discretionary {-}{}{}Thd\discretionary {-}{}{}Stud}{28}{subsubsection.4.7.2.9}}
\newlabel{global1_8h_a183d88148547934e24af8d7050454029}{{4.7.2.9}{28}{run\-Thd\-Stud\relax }{subsubsection.4.7.2.9}{}}
\@writefile{toc}{\contentsline {subsubsection}{\numberline {4.7.2.10}stud\discretionary {-}{}{}\_\discretionary {-}{}{}name}{28}{subsubsection.4.7.2.10}}
\newlabel{global1_8h_ab1d09895ed77d82d791da4da9bfb1174}{{4.7.2.10}{28}{stud\-\_\-name\relax }{subsubsection.4.7.2.10}{}}
\@writefile{toc}{\contentsline {section}{\numberline {4.8}graphml.\discretionary {-}{}{}h \discretionary {-}{}{}File \discretionary {-}{}{}Reference}{28}{section.4.8}}
\newlabel{graphml_8h}{{4.8}{28}{graphml.\-h \-File \-Reference\relax }{section.4.8}{}}
\@writefile{toc}{\contentsline {subsection}{\numberline {4.8.1}\discretionary {-}{}{}Detailed \discretionary {-}{}{}Description}{28}{subsection.4.8.1}}
\@writefile{toc}{\contentsline {subsection}{\numberline {4.8.2}\discretionary {-}{}{}Function \discretionary {-}{}{}Documentation}{28}{subsection.4.8.2}}
\@writefile{toc}{\contentsline {subsubsection}{\numberline {4.8.2.1}graphconverter}{28}{subsubsection.4.8.2.1}}
\newlabel{graphml_8h_a2cd8579f5ca0845450d660dc3ed51337}{{4.8.2.1}{28}{graphconverter\relax }{subsubsection.4.8.2.1}{}}
\@writefile{toc}{\contentsline {section}{\numberline {4.9}main\discretionary {-}{}{}\_\discretionary {-}{}{}2.\discretionary {-}{}{}h \discretionary {-}{}{}File \discretionary {-}{}{}Reference}{28}{section.4.9}}
\newlabel{main__2_8h}{{4.9}{28}{main\-\_\-2.\-h \-File \-Reference\relax }{section.4.9}{}}
\@writefile{toc}{\contentsline {subsection}{\numberline {4.9.1}\discretionary {-}{}{}Detailed \discretionary {-}{}{}Description}{29}{subsection.4.9.1}}
\@writefile{toc}{\contentsline {subsection}{\numberline {4.9.2}\discretionary {-}{}{}Function \discretionary {-}{}{}Documentation}{29}{subsection.4.9.2}}
\@writefile{toc}{\contentsline {subsubsection}{\numberline {4.9.2.1}set\discretionary {-}{}{}Enviro}{29}{subsubsection.4.9.2.1}}
\newlabel{main__2_8h_a6d0732d86302b6611c8663dcfb04c6ef}{{4.9.2.1}{29}{set\-Enviro\relax }{subsubsection.4.9.2.1}{}}
\@writefile{toc}{\contentsline {section}{\numberline {4.10}message\discretionary {-}{}{}\_\discretionary {-}{}{}temp.\discretionary {-}{}{}h \discretionary {-}{}{}File \discretionary {-}{}{}Reference}{29}{section.4.10}}
\newlabel{message__temp_8h}{{4.10}{29}{message\-\_\-temp.\-h \-File \-Reference\relax }{section.4.10}{}}
\gdef \LT@xix {\LT@entry 
    {1}{59.44409pt}\LT@entry 
    {1}{288.47205pt}}
\gdef \LT@xx {\LT@entry 
    {1}{59.44409pt}\LT@entry 
    {1}{288.47205pt}}
\gdef \LT@xxi {\LT@entry 
    {1}{59.44409pt}\LT@entry 
    {1}{288.47205pt}}
\@writefile{toc}{\contentsline {subsection}{\numberline {4.10.1}\discretionary {-}{}{}Detailed \discretionary {-}{}{}Description}{30}{subsection.4.10.1}}
\@writefile{toc}{\contentsline {subsection}{\numberline {4.10.2}\discretionary {-}{}{}Function \discretionary {-}{}{}Documentation}{30}{subsection.4.10.2}}
\@writefile{toc}{\contentsline {subsubsection}{\numberline {4.10.2.1}open\discretionary {-}{}{}\_\discretionary {-}{}{}queue}{30}{subsubsection.4.10.2.1}}
\newlabel{message__temp_8h_a2d161272adef2a6c3780b6f2150ec85b}{{4.10.2.1}{30}{open\-\_\-queue\relax }{subsubsection.4.10.2.1}{}}
\@writefile{toc}{\contentsline {subsubsection}{\numberline {4.10.2.2}rec\discretionary {-}{}{}\_\discretionary {-}{}{}msg}{30}{subsubsection.4.10.2.2}}
\newlabel{message__temp_8h_a166b26a683617581f8f78f589f16aa1c}{{4.10.2.2}{30}{rec\-\_\-msg\relax }{subsubsection.4.10.2.2}{}}
\@writefile{toc}{\contentsline {subsubsection}{\numberline {4.10.2.3}send\discretionary {-}{}{}\_\discretionary {-}{}{}msg}{30}{subsubsection.4.10.2.3}}
\newlabel{message__temp_8h_aead3e8ef4cb9128a12a7d91d0f8d4223}{{4.10.2.3}{30}{send\-\_\-msg\relax }{subsubsection.4.10.2.3}{}}
\gdef \LT@xxii {\LT@entry 
    {1}{59.44409pt}\LT@entry 
    {1}{288.47205pt}}
\@writefile{toc}{\contentsline {section}{\numberline {4.11}\discretionary {-}{}{}Semaphore.\discretionary {-}{}{}h \discretionary {-}{}{}File \discretionary {-}{}{}Reference}{31}{section.4.11}}
\newlabel{Semaphore_8h}{{4.11}{31}{\-Semaphore.\-h \-File \-Reference\relax }{section.4.11}{}}
\@writefile{toc}{\contentsline {subsection}{\numberline {4.11.1}\discretionary {-}{}{}Detailed \discretionary {-}{}{}Description}{31}{subsection.4.11.1}}
\@writefile{toc}{\contentsline {subsection}{\numberline {4.11.2}\discretionary {-}{}{}Function \discretionary {-}{}{}Documentation}{31}{subsection.4.11.2}}
\@writefile{toc}{\contentsline {subsubsection}{\numberline {4.11.2.1}get\discretionary {-}{}{}Sem}{31}{subsubsection.4.11.2.1}}
\newlabel{Semaphore_8h_a5ac31539365d0e3192352c92262ce121}{{4.11.2.1}{31}{get\-Sem\relax }{subsubsection.4.11.2.1}{}}
\@writefile{toc}{\contentsline {subsubsection}{\numberline {4.11.2.2}open\discretionary {-}{}{}\_\discretionary {-}{}{}sem}{31}{subsubsection.4.11.2.2}}
\newlabel{Semaphore_8h_a1c8fa7d4c38544ce731c9ecdaec097fb}{{4.11.2.2}{31}{open\-\_\-sem\relax }{subsubsection.4.11.2.2}{}}
\gdef \LT@xxiii {\LT@entry 
    {1}{59.44409pt}\LT@entry 
    {1}{288.47205pt}}
\gdef \LT@xxiv {\LT@entry 
    {1}{59.44409pt}\LT@entry 
    {1}{288.47205pt}}
\@writefile{toc}{\contentsline {subsubsection}{\numberline {4.11.2.3}rel\discretionary {-}{}{}Sem}{32}{subsubsection.4.11.2.3}}
\newlabel{Semaphore_8h_ae1c0ff504995333beee30a41f875dfdf}{{4.11.2.3}{32}{rel\-Sem\relax }{subsubsection.4.11.2.3}{}}
